…
options(max.print=4000)
grp.1pca_df <- as_tibble(data.frame(grp.1pca$grp), rownames="Sample")
grp.3pca_df <- as_tibble(data.frame(grp.3pca$grp), rownames="Sample")
grp.5pca_df <- as_tibble(data.frame(grp.5pca$grp), rownames="Sample")
grp.21pca_df <- as_tibble(data.frame(grp.21pca$grp), rownames="Sample")
#write.csv(grp_df, file="kmeans_clusters_allMarkersOnly.csv",sep=";")
compare_clusters <- left_join(T_all_withMLGs_withClusters_allMarkersOnly,grp.3pca_df,by=c("Code"="Sample"))
compare_clusters <- left_join(compare_clusters,grp.5pca_df,by=c("Code"="Sample"))
compare_clusters <- left_join(compare_clusters,grp.1pca_df,by=c("Code"="Sample"))
compare_clusters <- left_join(compare_clusters,grp.21pca_df,by=c("Code"="Sample"))
compare_clusters
```

    ## # A tibble: 2,639 × 11
    ##    Code   MLG    Site_1_abrev truffle_year Sampling_year Sampling_date
    ##    <chr>  <chr>  <chr>               <dbl>         <dbl> <date>       
    ##  1 TROSS3 MLG13  TRO                  2010          2011 2011-03-27   
    ##  2 TROSS4 MLG13  TRO                  2010          2011 2011-03-27   
    ##  3 BUR315 MLG7   BUR                  2022          2022 2022-08-13   
    ##  4 FREI1  MLG354 FRE                  2010          2011 2011-01-11   
    ##  5 ALD1   MLG363 ALD                  2010          2011 2011-03-05   
    ##  6 ALD2   MLG363 ALD                  2010          2011 2011-03-05   
    ##  7 FREI2  MLG354 FRE                  2010          2011 2011-03-05   
    ##  8 FREI3  MLG354 FRE                  2010          2011 2011-03-05   
    ##  9 RIETH1 MLG285 RIE                  2010          2011 2011-03-05   
    ## 10 RIETH2 MLG185 RIE                  2010          2011 2011-03-05   
    ## # ℹ 2,629 more rows
    ## # ℹ 5 more variables: `clusterssign(q>0.5)` <ord>, grp.3pca.grp <fct>,
    ## #   grp.5pca.grp <fct>, grp.1pca.grp <fct>, grp.21pca.grp <fct>
…
