…
    ## # A tibble: 2 × 3
    ##   found_once     n proportion
    ##   <chr>      <int>      <dbl>
    ## 1 Multiple    2258      0.856
    ## 2 Once         381      0.144

``` r
# Count the number of samples for each individual
sample_count <- T_all_withMLGs_withClusters_allMarkersOnly %>%
  group_by(MLG) %>%
  summarize(total_samples = n())
sample_count
```

    ## # A tibble: 449 × 2
    ##    MLG    total_samples
    ##    <chr>          <int>
    ##  1 MLG1              56
    ##  2 MLG10              1
    ##  3 MLG100             2
    ##  4 MLG101             1
    ##  5 MLG102             4
    ##  6 MLG103             1
    ##  7 MLG104             1
    ##  8 MLG105             3
    ##  9 MLG106             4
    ## 10 MLG107             1
    ## # ℹ 439 more rows

``` r
# Count how many individuals produced each sample count
individuals_per_sample_count <- sample_count %>%
  count(total_samples, name = "number_of_individuals") %>%
  mutate(total_samples_contributed = total_samples * number_of_individuals,
         proportion_of_total_samples = total_samples_contributed / sum(total_samples_contributed)*100)
individuals_per_sample_count
```

    ## # A tibble: 40 × 4
    ##    total_samples number_of_individuals total_samples_contributed
    ##            <int>                 <int>                     <int>
    ##  1             1                   291                       291
    ##  2             2                    47                        94
    ##  3             3                    27                        81
    ##  4             4                    16                        64
    ##  5             5                    12                        60
    ##  6             6                     6                        36
    ##  7             7                     4                        28
    ##  8             8                     3                        24
    ##  9             9                     2                        18
    ## 10            10                     1                        10
    ## # ℹ 30 more rows
    ## # ℹ 1 more variable: proportion_of_total_samples <dbl>
…
