…
``` r
mlg_data <- data.frame(
  mlg = mlg.vector(myData_genind_allMarkersOnly),
  pop = pop(myData_genind_allMarkersOnly)
)
shared_mlgs <- mlg_data %>%
  group_by(mlg) %>%
  summarize(n_pops = n_distinct(pop)) %>%
  filter(n_pops > 1)
print(shared_mlgs)
```

    ## # A tibble: 145 × 2
    ##      mlg n_pops
    ##    <int>  <int>
    ##  1     1     20
    ##  2     2      4
    ##  3     3      2
    ##  4     6      4
    ##  5     9     16
    ##  6    11      2
    ##  7    14      3
    ##  8    15      2
    ##  9    16      4
    ## 10    19     10
    ## # ℹ 135 more rows
…
