…
``` r
#treemap:
monstrata <- strata(microsats_dates) %>%     
  group_by(Pop,Month,Year) %>%
  summarize(Count = n())
```

    ## `summarise()` has grouped output by 'Pop', 'Month'. You can override using the
    ## `.groups` argument.

``` r
monstrata
```

    ## # A tibble: 506 × 4
    ## # Groups:   Pop, Month [174]
    ##    Pop   Month Year  Count
    ##    <fct> <fct> <fct> <int>
    ##  1 ALD   3     2011      4
    ##  2 ALD   3     2012      2
    ##  3 ALD   3     2013      2
    ##  4 ALD   6     2011      2
    ##  5 ALD   7     2011      2
    ##  6 ALD   7     2014      1
    ##  7 ALD   8     2011      3
    ##  8 ALD   8     2014      2
    ##  9 ALD   10    2011      2
    ## 10 ALD   10    2012      1
    ## # ℹ 496 more rows
…
